[
    {
        "page": 1,
        "pages": 2,
        "per_page": 50,
        "total": 62,
        "sourceid": "2",
        "sourcename": "World Development Indicators",
        "lastupdated": "2022-12-22"
    },
    [
        {
            "indicator": {
                "id": "NY.GDP.PCAP.CD",
                "value": "GDP per capita (current US$)"
            },
            "country": {
                "id": "BR",
                "value": "Brazil"
            },
            "countryiso3code": "BRA",
            "date": "2021",
            "value": 7507.16097080234,
            "unit": "",
            "obs_status": "",
            "decimal": 1
        },
        {
            "indicator": {
                "id": "NY.GDP.PCAP.CD",
                "value": "GDP per capita (current US$)"
            },
            "country": {
                "id": "BR",
                "value": "Brazil"
            },
            "countryiso3code": "BRA",
            "date": "2020",
            "value": 6794.48915877166,
            "unit": "",
            "obs_status": "",
            "decimal": 1
        },
        {
            "indicator": {
                "id": "NY.GDP.PCAP.CD",
                "value": "GDP per capita (current US$)"
            },
            "country": {
                "id": "BR",
                "value": "Brazil"
            },
            "countryiso3code": "BRA",
            "date": "2019",
            "value": 8845.25911841876,
            "unit": "",
            "obs_status": "",
            "decimal": 1
        },
        {
            "indicator": {
                "id": "NY.GDP.PCAP.CD",
                "value": "GDP per capita (current US$)"
            },
            "country": {
                "id": "BR",
                "value": "Brazil"
            },
            "countryiso3code": "BRA",
            "date": "2018",
            "value": 9121.08340257783,
            "unit": "",
            "obs_status": "",
            "decimal": 1
        },
        {
            "indicator": {
                "id": "NY.GDP.PCAP.CD",
                "value": "GDP per capita (current US$)"
            },
            "country": {
                "id": "BR",
                "value": "Brazil"
            },
            "countryiso3code": "BRA",
            "date": "2017",
            "value": 9896.68478335903,
            "unit": "",
            "obs_status": "",
            "decimal": 1
        },
        {
            "indicator": {
                "id": "NY.GDP.PCAP.CD",
                "value": "GDP per capita (current US$)"
            },
            "country": {
                "id": "BR",
                "value": "Brazil"
            },
            "countryiso3code": "BRA",
            "date": "2016",
            "value": 8680.76879182018,
            "unit": "",
            "obs_status": "",
            "decimal": 1
        },
        {
            "indicator": {
                "id": "NY.GDP.PCAP.CD",
                "value": "GDP per capita (current US$)"
            },
            "country": {
                "id": "BR",
                "value": "Brazil"
            },
            "countryiso3code": "BRA",
            "date": "2015",
            "value": 8783.22598387817,
            "unit": "",
            "obs_status": "",
            "decimal": 1
        },
        {
            "indicator": {
                "id": "NY.GDP.PCAP.CD",
                "value": "GDP per capita (current US$)"
            },
            "country": {
                "id": "BR",
                "value": "Brazil"
            },
            "countryiso3code": "BRA",
            "date": "2014",
            "value": 12071.1582132348,
            "unit": "",
            "obs_status": "",
            "decimal": 1
        },
        {
            "indicator": {
                "id": "NY.GDP.PCAP.CD",
                "value": "GDP per capita (current US$)"
            },
            "country": {
                "id": "BR",
                "value": "Brazil"
            },
            "countryiso3code": "BRA",
            "date": "2013",
            "value": 12258.5031683848,
            "unit": "",
            "obs_status": "",
            "decimal": 1
        },
        {
            "indicator": {
                "id": "NY.GDP.PCAP.CD",
                "value": "GDP per capita (current US$)"
            },
            "country": {
                "id": "BR",
                "value": "Brazil"
            },
            "countryiso3code": "BRA",
            "date": "2012",
            "value": 12327.3174365132,
            "unit": "",
            "obs_status": "",
            "decimal": 1
        },
        {
            "indicator": {
                "id": "NY.GDP.PCAP.CD",
                "value": "GDP per capita (current US$)"
            },
            "country": {
                "id": "BR",
                "value": "Brazil"
            },
            "countryiso3code": "BRA",
            "date": "2011",
            "value": 13200.7850823986,
            "unit": "",
            "obs_status": "",
            "decimal": 1
        },
        {
            "indicator": {
                "id": "NY.GDP.PCAP.CD",
                "value": "GDP per capita (current US$)"
            },
            "country": {
                "id": "BR",
                "value": "Brazil"
            },
            "countryiso3code": "BRA",
            "date": "2010",
            "value": 11249.464543278,
            "unit": "",
            "obs_status": "",
            "decimal": 1
        },
        {
            "indicator": {
                "id": "NY.GDP.PCAP.CD",
                "value": "GDP per capita (current US$)"
            },
            "country": {
                "id": "BR",
                "value": "Brazil"
            },
            "countryiso3code": "BRA",
            "date": "2009",
            "value": 8570.02256200077,
            "unit": "",
            "obs_status": "",
            "decimal": 1
        },
        {
            "indicator": {
                "id": "NY.GDP.PCAP.CD",
                "value": "GDP per capita (current US$)"
            },
            "country": {
                "id": "BR",
                "value": "Brazil"
            },
            "countryiso3code": "BRA",
            "date": "2008",
            "value": 8801.59948420962,
            "unit": "",
            "obs_status": "",
            "decimal": 1
        },
        {
            "indicator": {
                "id": "NY.GDP.PCAP.CD",
                "value": "GDP per capita (current US$)"
            },
            "country": {
                "id": "BR",
                "value": "Brazil"
            },
            "countryiso3code": "BRA",
            "date": "2007",
            "value": 7323.03362855509,
            "unit": "",
            "obs_status": "",
            "decimal": 1
        },
        {
            "indicator": {
                "id": "NY.GDP.PCAP.CD",
                "value": "GDP per capita (current US$)"
            },
            "country": {
                "id": "BR",
                "value": "Brazil"
            },
            "countryiso3code": "BRA",
            "date": "2006",
            "value": 5866.09622382995,
            "unit": "",
            "obs_status": "",
            "decimal": 1
        },
        {
            "indicator": {
                "id": "NY.GDP.PCAP.CD",
                "value": "GDP per capita (current US$)"
            },
            "country": {
                "id": "BR",
                "value": "Brazil"
            },
            "countryiso3code": "BRA",
            "date": "2005",
            "value": 4773.24894374558,
            "unit": "",
            "obs_status": "",
            "decimal": 1
        },
        {
            "indicator": {
                "id": "NY.GDP.PCAP.CD",
                "value": "GDP per capita (current US$)"
            },
            "country": {
                "id": "BR",
                "value": "Brazil"
            },
            "countryiso3code": "BRA",
            "date": "2004",
            "value": 3623.24799633539,
            "unit": "",
            "obs_status": "",
            "decimal": 1
        },
        {
            "indicator": {
                "id": "NY.GDP.PCAP.CD",
                "value": "GDP per capita (current US$)"
            },
            "country": {
                "id": "BR",
                "value": "Brazil"
            },
            "countryiso3code": "BRA",
            "date": "2003",
            "value": 3056.62496707108,
            "unit": "",
            "obs_status": "",
            "decimal": 1
        },
        {
            "indicator": {
                "id": "NY.GDP.PCAP.CD",
                "value": "GDP per capita (current US$)"
            },
            "country": {
                "id": "BR",
                "value": "Brazil"
            },
            "countryiso3code": "BRA",
            "date": "2002",
            "value": 2824.679625276,
            "unit": "",
            "obs_status": "",
            "decimal": 1
        },
        {
            "indicator": {
                "id": "NY.GDP.PCAP.CD",
                "value": "GDP per capita (current US$)"
            },
            "country": {
                "id": "BR",
                "value": "Brazil"
            },
            "countryiso3code": "BRA",
            "date": "2001",
            "value": 3142.27793491612,
            "unit": "",
            "obs_status": "",
            "decimal": 1
        },
        {
            "indicator": {
                "id": "NY.GDP.PCAP.CD",
                "value": "GDP per capita (current US$)"
            },
            "country": {
                "id": "BR",
                "value": "Brazil"
            },
            "countryiso3code": "BRA",
            "date": "2000",
            "value": 3726.81142036099,
            "unit": "",
            "obs_status": "",
            "decimal": 1
        },
        {
            "indicator": {
                "id": "NY.GDP.PCAP.CD",
                "value": "GDP per capita (current US$)"
            },
            "country": {
                "id": "BR",
                "value": "Brazil"
            },
            "countryiso3code": "BRA",
            "date": "1999",
            "value": 3456.42359484227,
            "unit": "",
            "obs_status": "",
            "decimal": 1
        },
        {
            "indicator": {
                "id": "NY.GDP.PCAP.CD",
                "value": "GDP per capita (current US$)"
            },
            "country": {
                "id": "BR",
                "value": "Brazil"
            },
            "countryiso3code": "BRA",
            "date": "1998",
            "value": 5049.76611943426,
            "unit": "",
            "obs_status": "",
            "decimal": 1
        },
        {
            "indicator": {
                "id": "NY.GDP.PCAP.CD",
                "value": "GDP per capita (current US$)"
            },
            "country": {
                "id": "BR",
                "value": "Brazil"
            },
            "countryiso3code": "BRA",
            "date": "1997",
            "value": 5240.12879590406,
            "unit": "",
            "obs_status": "",
            "decimal": 1
        },
        {
            "indicator": {
                "id": "NY.GDP.PCAP.CD",
                "value": "GDP per capita (current US$)"
            },
            "country": {
                "id": "BR",
                "value": "Brazil"
            },
            "countryiso3code": "BRA",
            "date": "1996",
            "value": 5121.90540734464,
            "unit": "",
            "obs_status": "",
            "decimal": 1
        },
        {
            "indicator": {
                "id": "NY.GDP.PCAP.CD",
                "value": "GDP per capita (current US$)"
            },
            "country": {
                "id": "BR",
                "value": "Brazil"
            },
            "countryiso3code": "BRA",
            "date": "1995",
            "value": 4704.96154593883,
            "unit": "",
            "obs_status": "",
            "decimal": 1
        },
        {
            "indicator": {
                "id": "NY.GDP.PCAP.CD",
                "value": "GDP per capita (current US$)"
            },
            "country": {
                "id": "BR",
                "value": "Brazil"
            },
            "countryiso3code": "BRA",
            "date": "1994",
            "value": 3263.56262238902,
            "unit": "",
            "obs_status": "",
            "decimal": 1
        },
        {
            "indicator": {
                "id": "NY.GDP.PCAP.CD",
                "value": "GDP per capita (current US$)"
            },
            "country": {
                "id": "BR",
                "value": "Brazil"
            },
            "countryiso3code": "BRA",
            "date": "1993",
            "value": 2324.49977472726,
            "unit": "",
            "obs_status": "",
            "decimal": 1
        },
        {
            "indicator": {
                "id": "NY.GDP.PCAP.CD",
                "value": "GDP per capita (current US$)"
            },
            "country": {
                "id": "BR",
                "value": "Brazil"
            },
            "countryiso3code": "BRA",
            "date": "1992",
            "value": 2105.10774751013,
            "unit": "",
            "obs_status": "",
            "decimal": 1
        },
        {
            "indicator": {
                "id": "NY.GDP.PCAP.CD",
                "value": "GDP per capita (current US$)"
            },
            "country": {
                "id": "BR",
                "value": "Brazil"
            },
            "countryiso3code": "BRA",
            "date": "1991",
            "value": 2234.36268750579,
            "unit": "",
            "obs_status": "",
            "decimal": 1
        },
        {
            "indicator": {
                "id": "NY.GDP.PCAP.CD",
                "value": "GDP per capita (current US$)"
            },
            "country": {
                "id": "BR",
                "value": "Brazil"
            },
            "countryiso3code": "BRA",
            "date": "1990",
            "value": 2592.62716607932,
            "unit": "",
            "obs_status": "",
            "decimal": 1
        },
        {
            "indicator": {
                "id": "NY.GDP.PCAP.CD",
                "value": "GDP per capita (current US$)"
            },
            "country": {
                "id": "BR",
                "value": "Brazil"
            },
            "countryiso3code": "BRA",
            "date": "1989",
            "value": 2344.73068725577,
            "unit": "",
            "obs_status": "",
            "decimal": 1
        },
        {
            "indicator": {
                "id": "NY.GDP.PCAP.CD",
                "value": "GDP per capita (current US$)"
            },
            "country": {
                "id": "BR",
                "value": "Brazil"
            },
            "countryiso3code": "BRA",
            "date": "1988",
            "value": 1781.81787555997,
            "unit": "",
            "obs_status": "",
            "decimal": 1
        },
        {
            "indicator": {
                "id": "NY.GDP.PCAP.CD",
                "value": "GDP per capita (current US$)"
            },
            "country": {
                "id": "BR",
                "value": "Brazil"
            },
            "countryiso3code": "BRA",
            "date": "1987",
            "value": 1667.18756959757,
            "unit": "",
            "obs_status": "",
            "decimal": 1
        },
        {
            "indicator": {
                "id": "NY.GDP.PCAP.CD",
                "value": "GDP per capita (current US$)"
            },
            "country": {
                "id": "BR",
                "value": "Brazil"
            },
            "countryiso3code": "BRA",
            "date": "1986",
            "value": 1545.92842461268,
            "unit": "",
            "obs_status": "",
            "decimal": 1
        },
        {
            "indicator": {
                "id": "NY.GDP.PCAP.CD",
                "value": "GDP per capita (current US$)"
            },
            "country": {
                "id": "BR",
                "value": "Brazil"
            },
            "countryiso3code": "BRA",
            "date": "1985",
            "value": 1287.61240473129,
            "unit": "",
            "obs_status": "",
            "decimal": 1
        },
        {
            "indicator": {
                "id": "NY.GDP.PCAP.CD",
                "value": "GDP per capita (current US$)"
            },
            "country": {
                "id": "BR",
                "value": "Brazil"
            },
            "countryiso3code": "BRA",
            "date": "1984",
            "value": 1406.68979969815,
            "unit": "",
            "obs_status": "",
            "decimal": 1
        },
        {
            "indicator": {
                "id": "NY.GDP.PCAP.CD",
                "value": "GDP per capita (current US$)"
            },
            "country": {
                "id": "BR",
                "value": "Brazil"
            },
            "countryiso3code": "BRA",
            "date": "1983",
            "value": 1448.00973115761,
            "unit": "",
            "obs_status": "",
            "decimal": 1
        },
        {
            "indicator": {
                "id": "NY.GDP.PCAP.CD",
                "value": "GDP per capita (current US$)"
            },
            "country": {
                "id": "BR",
                "value": "Brazil"
            },
            "countryiso3code": "BRA",
            "date": "1982",
            "value": 2118.56410810781,
            "unit": "",
            "obs_status": "",
            "decimal": 1
        },
        {
            "indicator": {
                "id": "NY.GDP.PCAP.CD",
                "value": "GDP per capita (current US$)"
            },
            "country": {
                "id": "BR",
                "value": "Brazil"
            },
            "countryiso3code": "BRA",
            "date": "1981",
            "value": 2061.34995420275,
            "unit": "",
            "obs_status": "",
            "decimal": 1
        },
        {
            "indicator": {
                "id": "NY.GDP.PCAP.CD",
                "value": "GDP per capita (current US$)"
            },
            "country": {
                "id": "BR",
                "value": "Brazil"
            },
            "countryiso3code": "BRA",
            "date": "1980",
            "value": 1941.25953805961,
            "unit": "",
            "obs_status": "",
            "decimal": 1
        },
        {
            "indicator": {
                "id": "NY.GDP.PCAP.CD",
                "value": "GDP per capita (current US$)"
            },
            "country": {
                "id": "BR",
                "value": "Brazil"
            },
            "countryiso3code": "BRA",
            "date": "1979",
            "value": 1853.01969086922,
            "unit": "",
            "obs_status": "",
            "decimal": 1
        },
        {
            "indicator": {
                "id": "NY.GDP.PCAP.CD",
                "value": "GDP per capita (current US$)"
            },
            "country": {
                "id": "BR",
                "value": "Brazil"
            },
            "countryiso3code": "BRA",
            "date": "1978",
            "value": 1716.70772767288,
            "unit": "",
            "obs_status": "",
            "decimal": 1
        },
        {
            "indicator": {
                "id": "NY.GDP.PCAP.CD",
                "value": "GDP per capita (current US$)"
            },
            "country": {
                "id": "BR",
                "value": "Brazil"
            },
            "countryiso3code": "BRA",
            "date": "1977",
            "value": 1547.6942060653,
            "unit": "",
            "obs_status": "",
            "decimal": 1
        },
        {
            "indicator": {
                "id": "NY.GDP.PCAP.CD",
                "value": "GDP per capita (current US$)"
            },
            "country": {
                "id": "BR",
                "value": "Brazil"
            },
            "countryiso3code": "BRA",
            "date": "1976",
            "value": 1376.3479281208,
            "unit": "",
            "obs_status": "",
            "decimal": 1
        },
        {
            "indicator": {
                "id": "NY.GDP.PCAP.CD",
                "value": "GDP per capita (current US$)"
            },
            "country": {
                "id": "BR",
                "value": "Brazil"
            },
            "countryiso3code": "BRA",
            "date": "1975",
            "value": 1188.6195317366,
            "unit": "",
            "obs_status": "",
            "decimal": 1
        },
        {
            "indicator": {
                "id": "NY.GDP.PCAP.CD",
                "value": "GDP per capita (current US$)"
            },
            "country": {
                "id": "BR",
                "value": "Brazil"
            },
            "countryiso3code": "BRA",
            "date": "1974",
            "value": 1034.16442979806,
            "unit": "",
            "obs_status": "",
            "decimal": 1
        },
        {
            "indicator": {
                "id": "NY.GDP.PCAP.CD",
                "value": "GDP per capita (current US$)"
            },
            "country": {
                "id": "BR",
                "value": "Brazil"
            },
            "countryiso3code": "BRA",
            "date": "1973",
            "value": 806.354512747851,
            "unit": "",
            "obs_status": "",
            "decimal": 1
        },
        {
            "indicator": {
                "id": "NY.GDP.PCAP.CD",
                "value": "GDP per capita (current US$)"
            },
            "country": {
                "id": "BR",
                "value": "Brazil"
            },
            "countryiso3code": "BRA",
            "date": "1972",
            "value": 577.451537235053,
            "unit": "",
            "obs_status": "",
            "decimal": 1
        }
    ]
]