[
    {
        "page": 1,
        "pages": 2,
        "per_page": 50,
        "total": 62,
        "sourceid": "2",
        "sourcename": "World Development Indicators",
        "lastupdated": "2022-12-22"
    },
    [
        {
            "indicator": {
                "id": "NY.GDP.PCAP.CD",
                "value": "GDP per capita (current US$)"
            },
            "country": {
                "id": "US",
                "value": "United States"
            },
            "countryiso3code": "USA",
            "date": "2021",
            "value": 70248.6290002242,
            "unit": "",
            "obs_status": "",
            "decimal": 1
        },
        {
            "indicator": {
                "id": "NY.GDP.PCAP.CD",
                "value": "GDP per capita (current US$)"
            },
            "country": {
                "id": "US",
                "value": "United States"
            },
            "countryiso3code": "USA",
            "date": "2020",
            "value": 63530.633483909,
            "unit": "",
            "obs_status": "",
            "decimal": 1
        },
        {
            "indicator": {
                "id": "NY.GDP.PCAP.CD",
                "value": "GDP per capita (current US$)"
            },
            "country": {
                "id": "US",
                "value": "United States"
            },
            "countryiso3code": "USA",
            "date": "2019",
            "value": 65120.3946628653,
            "unit": "",
            "obs_status": "",
            "decimal": 1
        },
        {
            "indicator": {
                "id": "NY.GDP.PCAP.CD",
                "value": "GDP per capita (current US$)"
            },
            "country": {
                "id": "US",
                "value": "United States"
            },
            "countryiso3code": "USA",
            "date": "2018",
            "value": 62823.309438197,
            "unit": "",
            "obs_status": "",
            "decimal": 1
        },
        {
            "indicator": {
                "id": "NY.GDP.PCAP.CD",
                "value": "GDP per capita (current US$)"
            },
            "country": {
                "id": "US",
                "value": "United States"
            },
            "countryiso3code": "USA",
            "date": "2017",
            "value": 59907.754260885,
            "unit": "",
            "obs_status": "",
            "decimal": 1
        },
        {
            "indicator": {
                "id": "NY.GDP.PCAP.CD",
                "value": "GDP per capita (current US$)"
            },
            "country": {
                "id": "US",
                "value": "United States"
            },
            "countryiso3code": "USA",
            "date": "2016",
            "value": 57866.7449341091,
            "unit": "",
            "obs_status": "",
            "decimal": 1
        },
        {
            "indicator": {
                "id": "NY.GDP.PCAP.CD",
                "value": "GDP per capita (current US$)"
            },
            "country": {
                "id": "US",
                "value": "United States"
            },
            "countryiso3code": "USA",
            "date": "2015",
            "value": 56762.7294515989,
            "unit": "",
            "obs_status": "",
            "decimal": 1
        },
        {
            "indicator": {
                "id": "NY.GDP.PCAP.CD",
                "value": "GDP per capita (current US$)"
            },
            "country": {
                "id": "US",
                "value": "United States"
            },
            "countryiso3code": "USA",
            "date": "2014",
            "value": 55123.8497869046,
            "unit": "",
            "obs_status": "",
            "decimal": 1
        },
        {
            "indicator": {
                "id": "NY.GDP.PCAP.CD",
                "value": "GDP per capita (current US$)"
            },
            "country": {
                "id": "US",
                "value": "United States"
            },
            "countryiso3code": "USA",
            "date": "2013",
            "value": 53291.1276891406,
            "unit": "",
            "obs_status": "",
            "decimal": 1
        },
        {
            "indicator": {
                "id": "NY.GDP.PCAP.CD",
                "value": "GDP per capita (current US$)"
            },
            "country": {
                "id": "US",
                "value": "United States"
            },
            "countryiso3code": "USA",
            "date": "2012",
            "value": 51784.4185738837,
            "unit": "",
            "obs_status": "",
            "decimal": 1
        },
        {
            "indicator": {
                "id": "NY.GDP.PCAP.CD",
                "value": "GDP per capita (current US$)"
            },
            "country": {
                "id": "US",
                "value": "United States"
            },
            "countryiso3code": "USA",
            "date": "2011",
            "value": 50065.9665041742,
            "unit": "",
            "obs_status": "",
            "decimal": 1
        },
        {
            "indicator": {
                "id": "NY.GDP.PCAP.CD",
                "value": "GDP per capita (current US$)"
            },
            "country": {
                "id": "US",
                "value": "United States"
            },
            "countryiso3code": "USA",
            "date": "2010",
            "value": 48650.6431283336,
            "unit": "",
            "obs_status": "",
            "decimal": 1
        },
        {
            "indicator": {
                "id": "NY.GDP.PCAP.CD",
                "value": "GDP per capita (current US$)"
            },
            "country": {
                "id": "US",
                "value": "United States"
            },
            "countryiso3code": "USA",
            "date": "2009",
            "value": 47194.9433547336,
            "unit": "",
            "obs_status": "",
            "decimal": 1
        },
        {
            "indicator": {
                "id": "NY.GDP.PCAP.CD",
                "value": "GDP per capita (current US$)"
            },
            "country": {
                "id": "US",
                "value": "United States"
            },
            "countryiso3code": "USA",
            "date": "2008",
            "value": 48570.0459804586,
            "unit": "",
            "obs_status": "",
            "decimal": 1
        },
        {
            "indicator": {
                "id": "NY.GDP.PCAP.CD",
                "value": "GDP per capita (current US$)"
            },
            "country": {
                "id": "US",
                "value": "United States"
            },
            "countryiso3code": "USA",
            "date": "2007",
            "value": 48050.2237771135,
            "unit": "",
            "obs_status": "",
            "decimal": 1
        },
        {
            "indicator": {
                "id": "NY.GDP.PCAP.CD",
                "value": "GDP per capita (current US$)"
            },
            "country": {
                "id": "US",
                "value": "United States"
            },
            "countryiso3code": "USA",
            "date": "2006",
            "value": 46302.0008800056,
            "unit": "",
            "obs_status": "",
            "decimal": 1
        },
        {
            "indicator": {
                "id": "NY.GDP.PCAP.CD",
                "value": "GDP per capita (current US$)"
            },
            "country": {
                "id": "US",
                "value": "United States"
            },
            "countryiso3code": "USA",
            "date": "2005",
            "value": 44123.4070679055,
            "unit": "",
            "obs_status": "",
            "decimal": 1
        },
        {
            "indicator": {
                "id": "NY.GDP.PCAP.CD",
                "value": "GDP per capita (current US$)"
            },
            "country": {
                "id": "US",
                "value": "United States"
            },
            "countryiso3code": "USA",
            "date": "2004",
            "value": 41724.6316287624,
            "unit": "",
            "obs_status": "",
            "decimal": 1
        },
        {
            "indicator": {
                "id": "NY.GDP.PCAP.CD",
                "value": "GDP per capita (current US$)"
            },
            "country": {
                "id": "US",
                "value": "United States"
            },
            "countryiso3code": "USA",
            "date": "2003",
            "value": 39490.2749557007,
            "unit": "",
            "obs_status": "",
            "decimal": 1
        },
        {
            "indicator": {
                "id": "NY.GDP.PCAP.CD",
                "value": "GDP per capita (current US$)"
            },
            "country": {
                "id": "US",
                "value": "United States"
            },
            "countryiso3code": "USA",
            "date": "2002",
            "value": 37997.7596573051,
            "unit": "",
            "obs_status": "",
            "decimal": 1
        },
        {
            "indicator": {
                "id": "NY.GDP.PCAP.CD",
                "value": "GDP per capita (current US$)"
            },
            "country": {
                "id": "US",
                "value": "United States"
            },
            "countryiso3code": "USA",
            "date": "2001",
            "value": 37133.623113437,
            "unit": "",
            "obs_status": "",
            "decimal": 1
        },
        {
            "indicator": {
                "id": "NY.GDP.PCAP.CD",
                "value": "GDP per capita (current US$)"
            },
            "country": {
                "id": "US",
                "value": "United States"
            },
            "countryiso3code": "USA",
            "date": "2000",
            "value": 36329.9560727102,
            "unit": "",
            "obs_status": "",
            "decimal": 1
        },
        {
            "indicator": {
                "id": "NY.GDP.PCAP.CD",
                "value": "GDP per capita (current US$)"
            },
            "country": {
                "id": "US",
                "value": "United States"
            },
            "countryiso3code": "USA",
            "date": "1999",
            "value": 34515.3902272076,
            "unit": "",
            "obs_status": "",
            "decimal": 1
        },
        {
            "indicator": {
                "id": "NY.GDP.PCAP.CD",
                "value": "GDP per capita (current US$)"
            },
            "country": {
                "id": "US",
                "value": "United States"
            },
            "countryiso3code": "USA",
            "date": "1998",
            "value": 32853.6769523009,
            "unit": "",
            "obs_status": "",
            "decimal": 1
        },
        {
            "indicator": {
                "id": "NY.GDP.PCAP.CD",
                "value": "GDP per capita (current US$)"
            },
            "country": {
                "id": "US",
                "value": "United States"
            },
            "countryiso3code": "USA",
            "date": "1997",
            "value": 31459.1389804773,
            "unit": "",
            "obs_status": "",
            "decimal": 1
        },
        {
            "indicator": {
                "id": "NY.GDP.PCAP.CD",
                "value": "GDP per capita (current US$)"
            },
            "country": {
                "id": "US",
                "value": "United States"
            },
            "countryiso3code": "USA",
            "date": "1996",
            "value": 29967.7127181749,
            "unit": "",
            "obs_status": "",
            "decimal": 1
        },
        {
            "indicator": {
                "id": "NY.GDP.PCAP.CD",
                "value": "GDP per capita (current US$)"
            },
            "country": {
                "id": "US",
                "value": "United States"
            },
            "countryiso3code": "USA",
            "date": "1995",
            "value": 28690.8757013347,
            "unit": "",
            "obs_status": "",
            "decimal": 1
        },
        {
            "indicator": {
                "id": "NY.GDP.PCAP.CD",
                "value": "GDP per capita (current US$)"
            },
            "country": {
                "id": "US",
                "value": "United States"
            },
            "countryiso3code": "USA",
            "date": "1994",
            "value": 27694.853416234,
            "unit": "",
            "obs_status": "",
            "decimal": 1
        },
        {
            "indicator": {
                "id": "NY.GDP.PCAP.CD",
                "value": "GDP per capita (current US$)"
            },
            "country": {
                "id": "US",
                "value": "United States"
            },
            "countryiso3code": "USA",
            "date": "1993",
            "value": 26387.2937338171,
            "unit": "",
            "obs_status": "",
            "decimal": 1
        },
        {
            "indicator": {
                "id": "NY.GDP.PCAP.CD",
                "value": "GDP per capita (current US$)"
            },
            "country": {
                "id": "US",
                "value": "United States"
            },
            "countryiso3code": "USA",
            "date": "1992",
            "value": 25418.9907763319,
            "unit": "",
            "obs_status": "",
            "decimal": 1
        },
        {
            "indicator": {
                "id": "NY.GDP.PCAP.CD",
                "value": "GDP per capita (current US$)"
            },
            "country": {
                "id": "US",
                "value": "United States"
            },
            "countryiso3code": "USA",
            "date": "1991",
            "value": 24342.2589048189,
            "unit": "",
            "obs_status": "",
            "decimal": 1
        },
        {
            "indicator": {
                "id": "NY.GDP.PCAP.CD",
                "value": "GDP per capita (current US$)"
            },
            "country": {
                "id": "US",
                "value": "United States"
            },
            "countryiso3code": "USA",
            "date": "1990",
            "value": 23888.6000088133,
            "unit": "",
            "obs_status": "",
            "decimal": 1
        },
        {
            "indicator": {
                "id": "NY.GDP.PCAP.CD",
                "value": "GDP per capita (current US$)"
            },
            "country": {
                "id": "US",
                "value": "United States"
            },
            "countryiso3code": "USA",
            "date": "1989",
            "value": 22857.1544330056,
            "unit": "",
            "obs_status": "",
            "decimal": 1
        },
        {
            "indicator": {
                "id": "NY.GDP.PCAP.CD",
                "value": "GDP per capita (current US$)"
            },
            "country": {
                "id": "US",
                "value": "United States"
            },
            "countryiso3code": "USA",
            "date": "1988",
            "value": 21417.0119305191,
            "unit": "",
            "obs_status": "",
            "decimal": 1
        },
        {
            "indicator": {
                "id": "NY.GDP.PCAP.CD",
                "value": "GDP per capita (current US$)"
            },
            "country": {
                "id": "US",
                "value": "United States"
            },
            "countryiso3code": "USA",
            "date": "1987",
            "value": 20038.9410992658,
            "unit": "",
            "obs_status": "",
            "decimal": 1
        },
        {
            "indicator": {
                "id": "NY.GDP.PCAP.CD",
                "value": "GDP per capita (current US$)"
            },
            "country": {
                "id": "US",
                "value": "United States"
            },
            "countryiso3code": "USA",
            "date": "1986",
            "value": 19071.2271949295,
            "unit": "",
            "obs_status": "",
            "decimal": 1
        },
        {
            "indicator": {
                "id": "NY.GDP.PCAP.CD",
                "value": "GDP per capita (current US$)"
            },
            "country": {
                "id": "US",
                "value": "United States"
            },
            "countryiso3code": "USA",
            "date": "1985",
            "value": 18236.8277265009,
            "unit": "",
            "obs_status": "",
            "decimal": 1
        },
        {
            "indicator": {
                "id": "NY.GDP.PCAP.CD",
                "value": "GDP per capita (current US$)"
            },
            "country": {
                "id": "US",
                "value": "United States"
            },
            "countryiso3code": "USA",
            "date": "1984",
            "value": 17121.2254849995,
            "unit": "",
            "obs_status": "",
            "decimal": 1
        },
        {
            "indicator": {
                "id": "NY.GDP.PCAP.CD",
                "value": "GDP per capita (current US$)"
            },
            "country": {
                "id": "US",
                "value": "United States"
            },
            "countryiso3code": "USA",
            "date": "1983",
            "value": 15543.8937174925,
            "unit": "",
            "obs_status": "",
            "decimal": 1
        },
        {
            "indicator": {
                "id": "NY.GDP.PCAP.CD",
                "value": "GDP per capita (current US$)"
            },
            "country": {
                "id": "US",
                "value": "United States"
            },
            "countryiso3code": "USA",
            "date": "1982",
            "value": 14433.787727053,
            "unit": "",
            "obs_status": "",
            "decimal": 1
        },
        {
            "indicator": {
                "id": "NY.GDP.PCAP.CD",
                "value": "GDP per capita (current US$)"
            },
            "country": {
                "id": "US",
                "value": "United States"
            },
            "countryiso3code": "USA",
            "date": "1981",
            "value": 13976.10539252,
            "unit": "",
            "obs_status": "",
            "decimal": 1
        },
        {
            "indicator": {
                "id": "NY.GDP.PCAP.CD",
                "value": "GDP per capita (current US$)"
            },
            "country": {
                "id": "US",
                "value": "United States"
            },
            "countryiso3code": "USA",
            "date": "1980",
            "value": 12574.7915062163,
            "unit": "",
            "obs_status": "",
            "decimal": 1
        },
        {
            "indicator": {
                "id": "NY.GDP.PCAP.CD",
                "value": "GDP per capita (current US$)"
            },
            "country": {
                "id": "US",
                "value": "United States"
            },
            "countryiso3code": "USA",
            "date": "1979",
            "value": 11674.1818666548,
            "unit": "",
            "obs_status": "",
            "decimal": 1
        },
        {
            "indicator": {
                "id": "NY.GDP.PCAP.CD",
                "value": "GDP per capita (current US$)"
            },
            "country": {
                "id": "US",
                "value": "United States"
            },
            "countryiso3code": "USA",
            "date": "1978",
            "value": 10564.9482220275,
            "unit": "",
            "obs_status": "",
            "decimal": 1
        },
        {
            "indicator": {
                "id": "NY.GDP.PCAP.CD",
                "value": "GDP per capita (current US$)"
            },
            "country": {
                "id": "US",
                "value": "United States"
            },
            "countryiso3code": "USA",
            "date": "1977",
            "value": 9452.57651914511,
            "unit": "",
            "obs_status": "",
            "decimal": 1
        },
        {
            "indicator": {
                "id": "NY.GDP.PCAP.CD",
                "value": "GDP per capita (current US$)"
            },
            "country": {
                "id": "US",
                "value": "United States"
            },
            "countryiso3code": "USA",
            "date": "1976",
            "value": 8592.25353727612,
            "unit": "",
            "obs_status": "",
            "decimal": 1
        },
        {
            "indicator": {
                "id": "NY.GDP.PCAP.CD",
                "value": "GDP per capita (current US$)"
            },
            "country": {
                "id": "US",
                "value": "United States"
            },
            "countryiso3code": "USA",
            "date": "1975",
            "value": 7801.45666356443,
            "unit": "",
            "obs_status": "",
            "decimal": 1
        },
        {
            "indicator": {
                "id": "NY.GDP.PCAP.CD",
                "value": "GDP per capita (current US$)"
            },
            "country": {
                "id": "US",
                "value": "United States"
            },
            "countryiso3code": "USA",
            "date": "1974",
            "value": 7225.69135952566,
            "unit": "",
            "obs_status": "",
            "decimal": 1
        },
        {
            "indicator": {
                "id": "NY.GDP.PCAP.CD",
                "value": "GDP per capita (current US$)"
            },
            "country": {
                "id": "US",
                "value": "United States"
            },
            "countryiso3code": "USA",
            "date": "1973",
            "value": 6726.35895596695,
            "unit": "",
            "obs_status": "",
            "decimal": 1
        },
        {
            "indicator": {
                "id": "NY.GDP.PCAP.CD",
                "value": "GDP per capita (current US$)"
            },
            "country": {
                "id": "US",
                "value": "United States"
            },
            "countryiso3code": "USA",
            "date": "1972",
            "value": 6094.01798986165,
            "unit": "",
            "obs_status": "",
            "decimal": 1
        }
    ]
]