[
    {
        "page": 1,
        "pages": 2,
        "per_page": 50,
        "total": 62,
        "sourceid": "2",
        "sourcename": "World Development Indicators",
        "lastupdated": "2022-12-22"
    },
    [
        {
            "indicator": {
                "id": "NY.GDP.PCAP.CD",
                "value": "GDP per capita (current US$)"
            },
            "country": {
                "id": "JG",
                "value": "Channel Islands"
            },
            "countryiso3code": "CHI",
            "date": "2021",
            "value": null,
            "unit": "",
            "obs_status": "",
            "decimal": 1
        },
        {
            "indicator": {
                "id": "NY.GDP.PCAP.CD",
                "value": "GDP per capita (current US$)"
            },
            "country": {
                "id": "JG",
                "value": "Channel Islands"
            },
            "countryiso3code": "CHI",
            "date": "2020",
            "value": null,
            "unit": "",
            "obs_status": "",
            "decimal": 1
        },
        {
            "indicator": {
                "id": "NY.GDP.PCAP.CD",
                "value": "GDP per capita (current US$)"
            },
            "country": {
                "id": "JG",
                "value": "Channel Islands"
            },
            "countryiso3code": "CHI",
            "date": "2019",
            "value": null,
            "unit": "",
            "obs_status": "",
            "decimal": 1
        },
        {
            "indicator": {
                "id": "NY.GDP.PCAP.CD",
                "value": "GDP per capita (current US$)"
            },
            "country": {
                "id": "JG",
                "value": "Channel Islands"
            },
            "countryiso3code": "CHI",
            "date": "2018",
            "value": null,
            "unit": "",
            "obs_status": "",
            "decimal": 1
        },
        {
            "indicator": {
                "id": "NY.GDP.PCAP.CD",
                "value": "GDP per capita (current US$)"
            },
            "country": {
                "id": "JG",
                "value": "Channel Islands"
            },
            "countryiso3code": "CHI",
            "date": "2017",
            "value": null,
            "unit": "",
            "obs_status": "",
            "decimal": 1
        },
        {
            "indicator": {
                "id": "NY.GDP.PCAP.CD",
                "value": "GDP per capita (current US$)"
            },
            "country": {
                "id": "JG",
                "value": "Channel Islands"
            },
            "countryiso3code": "CHI",
            "date": "2016",
            "value": null,
            "unit": "",
            "obs_status": "",
            "decimal": 1
        },
        {
            "indicator": {
                "id": "NY.GDP.PCAP.CD",
                "value": "GDP per capita (current US$)"
            },
            "country": {
                "id": "JG",
                "value": "Channel Islands"
            },
            "countryiso3code": "CHI",
            "date": "2015",
            "value": null,
            "unit": "",
            "obs_status": "",
            "decimal": 1
        },
        {
            "indicator": {
                "id": "NY.GDP.PCAP.CD",
                "value": "GDP per capita (current US$)"
            },
            "country": {
                "id": "JG",
                "value": "Channel Islands"
            },
            "countryiso3code": "CHI",
            "date": "2014",
            "value": null,
            "unit": "",
            "obs_status": "",
            "decimal": 1
        },
        {
            "indicator": {
                "id": "NY.GDP.PCAP.CD",
                "value": "GDP per capita (current US$)"
            },
            "country": {
                "id": "JG",
                "value": "Channel Islands"
            },
            "countryiso3code": "CHI",
            "date": "2013",
            "value": null,
            "unit": "",
            "obs_status": "",
            "decimal": 1
        },
        {
            "indicator": {
                "id": "NY.GDP.PCAP.CD",
                "value": "GDP per capita (current US$)"
            },
            "country": {
                "id": "JG",
                "value": "Channel Islands"
            },
            "countryiso3code": "CHI",
            "date": "2012",
            "value": null,
            "unit": "",
            "obs_status": "",
            "decimal": 1
        },
        {
            "indicator": {
                "id": "NY.GDP.PCAP.CD",
                "value": "GDP per capita (current US$)"
            },
            "country": {
                "id": "JG",
                "value": "Channel Islands"
            },
            "countryiso3code": "CHI",
            "date": "2011",
            "value": null,
            "unit": "",
            "obs_status": "",
            "decimal": 1
        },
        {
            "indicator": {
                "id": "NY.GDP.PCAP.CD",
                "value": "GDP per capita (current US$)"
            },
            "country": {
                "id": "JG",
                "value": "Channel Islands"
            },
            "countryiso3code": "CHI",
            "date": "2010",
            "value": null,
            "unit": "",
            "obs_status": "",
            "decimal": 1
        },
        {
            "indicator": {
                "id": "NY.GDP.PCAP.CD",
                "value": "GDP per capita (current US$)"
            },
            "country": {
                "id": "JG",
                "value": "Channel Islands"
            },
            "countryiso3code": "CHI",
            "date": "2009",
            "value": null,
            "unit": "",
            "obs_status": "",
            "decimal": 1
        },
        {
            "indicator": {
                "id": "NY.GDP.PCAP.CD",
                "value": "GDP per capita (current US$)"
            },
            "country": {
                "id": "JG",
                "value": "Channel Islands"
            },
            "countryiso3code": "CHI",
            "date": "2008",
            "value": null,
            "unit": "",
            "obs_status": "",
            "decimal": 1
        },
        {
            "indicator": {
                "id": "NY.GDP.PCAP.CD",
                "value": "GDP per capita (current US$)"
            },
            "country": {
                "id": "JG",
                "value": "Channel Islands"
            },
            "countryiso3code": "CHI",
            "date": "2007",
            "value": 75152.6097830544,
            "unit": "",
            "obs_status": "",
            "decimal": 1
        },
        {
            "indicator": {
                "id": "NY.GDP.PCAP.CD",
                "value": "GDP per capita (current US$)"
            },
            "country": {
                "id": "JG",
                "value": "Channel Islands"
            },
            "countryiso3code": "CHI",
            "date": "2006",
            "value": 63666.8772417889,
            "unit": "",
            "obs_status": "",
            "decimal": 1
        },
        {
            "indicator": {
                "id": "NY.GDP.PCAP.CD",
                "value": "GDP per capita (current US$)"
            },
            "country": {
                "id": "JG",
                "value": "Channel Islands"
            },
            "countryiso3code": "CHI",
            "date": "2005",
            "value": 58550.834602655,
            "unit": "",
            "obs_status": "",
            "decimal": 1
        },
        {
            "indicator": {
                "id": "NY.GDP.PCAP.CD",
                "value": "GDP per capita (current US$)"
            },
            "country": {
                "id": "JG",
                "value": "Channel Islands"
            },
            "countryiso3code": "CHI",
            "date": "2004",
            "value": 57202.5610285933,
            "unit": "",
            "obs_status": "",
            "decimal": 1
        },
        {
            "indicator": {
                "id": "NY.GDP.PCAP.CD",
                "value": "GDP per capita (current US$)"
            },
            "country": {
                "id": "JG",
                "value": "Channel Islands"
            },
            "countryiso3code": "CHI",
            "date": "2003",
            "value": 49430.5290888732,
            "unit": "",
            "obs_status": "",
            "decimal": 1
        },
        {
            "indicator": {
                "id": "NY.GDP.PCAP.CD",
                "value": "GDP per capita (current US$)"
            },
            "country": {
                "id": "JG",
                "value": "Channel Islands"
            },
            "countryiso3code": "CHI",
            "date": "2002",
            "value": 45278.0584726676,
            "unit": "",
            "obs_status": "",
            "decimal": 1
        },
        {
            "indicator": {
                "id": "NY.GDP.PCAP.CD",
                "value": "GDP per capita (current US$)"
            },
            "country": {
                "id": "JG",
                "value": "Channel Islands"
            },
            "countryiso3code": "CHI",
            "date": "2001",
            "value": 42681.0417435135,
            "unit": "",
            "obs_status": "",
            "decimal": 1
        },
        {
            "indicator": {
                "id": "NY.GDP.PCAP.CD",
                "value": "GDP per capita (current US$)"
            },
            "country": {
                "id": "JG",
                "value": "Channel Islands"
            },
            "countryiso3code": "CHI",
            "date": "2000",
            "value": 44316.1535931325,
            "unit": "",
            "obs_status": "",
            "decimal": 1
        },
        {
            "indicator": {
                "id": "NY.GDP.PCAP.CD",
                "value": "GDP per capita (current US$)"
            },
            "country": {
                "id": "JG",
                "value": "Channel Islands"
            },
            "countryiso3code": "CHI",
            "date": "1999",
            "value": 43250.7057089383,
            "unit": "",
            "obs_status": "",
            "decimal": 1
        },
        {
            "indicator": {
                "id": "NY.GDP.PCAP.CD",
                "value": "GDP per capita (current US$)"
            },
            "country": {
                "id": "JG",
                "value": "Channel Islands"
            },
            "countryiso3code": "CHI",
            "date": "1998",
            "value": 41227.4032584823,
            "unit": "",
            "obs_status": "",
            "decimal": 1
        },
        {
            "indicator": {
                "id": "NY.GDP.PCAP.CD",
                "value": "GDP per capita (current US$)"
            },
            "country": {
                "id": "JG",
                "value": "Channel Islands"
            },
            "countryiso3code": "CHI",
            "date": "1997",
            "value": null,
            "unit": "",
            "obs_status": "",
            "decimal": 1
        },
        {
            "indicator": {
                "id": "NY.GDP.PCAP.CD",
                "value": "GDP per capita (current US$)"
            },
            "country": {
                "id": "JG",
                "value": "Channel Islands"
            },
            "countryiso3code": "CHI",
            "date": "1996",
            "value": null,
            "unit": "",
            "obs_status": "",
            "decimal": 1
        },
        {
            "indicator": {
                "id": "NY.GDP.PCAP.CD",
                "value": "GDP per capita (current US$)"
            },
            "country": {
                "id": "JG",
                "value": "Channel Islands"
            },
            "countryiso3code": "CHI",
            "date": "1995",
            "value": null,
            "unit": "",
            "obs_status": "",
            "decimal": 1
        },
        {
            "indicator": {
                "id": "NY.GDP.PCAP.CD",
                "value": "GDP per capita (current US$)"
            },
            "country": {
                "id": "JG",
                "value": "Channel Islands"
            },
            "countryiso3code": "CHI",
            "date": "1994",
            "value": null,
            "unit": "",
            "obs_status": "",
            "decimal": 1
        },
        {
            "indicator": {
                "id": "NY.GDP.PCAP.CD",
                "value": "GDP per capita (current US$)"
            },
            "country": {
                "id": "JG",
                "value": "Channel Islands"
            },
            "countryiso3code": "CHI",
            "date": "1993",
            "value": null,
            "unit": "",
            "obs_status": "",
            "decimal": 1
        },
        {
            "indicator": {
                "id": "NY.GDP.PCAP.CD",
                "value": "GDP per capita (current US$)"
            },
            "country": {
                "id": "JG",
                "value": "Channel Islands"
            },
            "countryiso3code": "CHI",
            "date": "1992",
            "value": null,
            "unit": "",
            "obs_status": "",
            "decimal": 1
        },
        {
            "indicator": {
                "id": "NY.GDP.PCAP.CD",
                "value": "GDP per capita (current US$)"
            },
            "country": {
                "id": "JG",
                "value": "Channel Islands"
            },
            "countryiso3code": "CHI",
            "date": "1991",
            "value": null,
            "unit": "",
            "obs_status": "",
            "decimal": 1
        },
        {
            "indicator": {
                "id": "NY.GDP.PCAP.CD",
                "value": "GDP per capita (current US$)"
            },
            "country": {
                "id": "JG",
                "value": "Channel Islands"
            },
            "countryiso3code": "CHI",
            "date": "1990",
            "value": null,
            "unit": "",
            "obs_status": "",
            "decimal": 1
        },
        {
            "indicator": {
                "id": "NY.GDP.PCAP.CD",
                "value": "GDP per capita (current US$)"
            },
            "country": {
                "id": "JG",
                "value": "Channel Islands"
            },
            "countryiso3code": "CHI",
            "date": "1989",
            "value": null,
            "unit": "",
            "obs_status": "",
            "decimal": 1
        },
        {
            "indicator": {
                "id": "NY.GDP.PCAP.CD",
                "value": "GDP per capita (current US$)"
            },
            "country": {
                "id": "JG",
                "value": "Channel Islands"
            },
            "countryiso3code": "CHI",
            "date": "1988",
            "value": null,
            "unit": "",
            "obs_status": "",
            "decimal": 1
        },
        {
            "indicator": {
                "id": "NY.GDP.PCAP.CD",
                "value": "GDP per capita (current US$)"
            },
            "country": {
                "id": "JG",
                "value": "Channel Islands"
            },
            "countryiso3code": "CHI",
            "date": "1987",
            "value": null,
            "unit": "",
            "obs_status": "",
            "decimal": 1
        },
        {
            "indicator": {
                "id": "NY.GDP.PCAP.CD",
                "value": "GDP per capita (current US$)"
            },
            "country": {
                "id": "JG",
                "value": "Channel Islands"
            },
            "countryiso3code": "CHI",
            "date": "1986",
            "value": null,
            "unit": "",
            "obs_status": "",
            "decimal": 1
        },
        {
            "indicator": {
                "id": "NY.GDP.PCAP.CD",
                "value": "GDP per capita (current US$)"
            },
            "country": {
                "id": "JG",
                "value": "Channel Islands"
            },
            "countryiso3code": "CHI",
            "date": "1985",
            "value": null,
            "unit": "",
            "obs_status": "",
            "decimal": 1
        },
        {
            "indicator": {
                "id": "NY.GDP.PCAP.CD",
                "value": "GDP per capita (current US$)"
            },
            "country": {
                "id": "JG",
                "value": "Channel Islands"
            },
            "countryiso3code": "CHI",
            "date": "1984",
            "value": null,
            "unit": "",
            "obs_status": "",
            "decimal": 1
        },
        {
            "indicator": {
                "id": "NY.GDP.PCAP.CD",
                "value": "GDP per capita (current US$)"
            },
            "country": {
                "id": "JG",
                "value": "Channel Islands"
            },
            "countryiso3code": "CHI",
            "date": "1983",
            "value": null,
            "unit": "",
            "obs_status": "",
            "decimal": 1
        },
        {
            "indicator": {
                "id": "NY.GDP.PCAP.CD",
                "value": "GDP per capita (current US$)"
            },
            "country": {
                "id": "JG",
                "value": "Channel Islands"
            },
            "countryiso3code": "CHI",
            "date": "1982",
            "value": null,
            "unit": "",
            "obs_status": "",
            "decimal": 1
        },
        {
            "indicator": {
                "id": "NY.GDP.PCAP.CD",
                "value": "GDP per capita (current US$)"
            },
            "country": {
                "id": "JG",
                "value": "Channel Islands"
            },
            "countryiso3code": "CHI",
            "date": "1981",
            "value": null,
            "unit": "",
            "obs_status": "",
            "decimal": 1
        },
        {
            "indicator": {
                "id": "NY.GDP.PCAP.CD",
                "value": "GDP per capita (current US$)"
            },
            "country": {
                "id": "JG",
                "value": "Channel Islands"
            },
            "countryiso3code": "CHI",
            "date": "1980",
            "value": null,
            "unit": "",
            "obs_status": "",
            "decimal": 1
        },
        {
            "indicator": {
                "id": "NY.GDP.PCAP.CD",
                "value": "GDP per capita (current US$)"
            },
            "country": {
                "id": "JG",
                "value": "Channel Islands"
            },
            "countryiso3code": "CHI",
            "date": "1979",
            "value": null,
            "unit": "",
            "obs_status": "",
            "decimal": 1
        },
        {
            "indicator": {
                "id": "NY.GDP.PCAP.CD",
                "value": "GDP per capita (current US$)"
            },
            "country": {
                "id": "JG",
                "value": "Channel Islands"
            },
            "countryiso3code": "CHI",
            "date": "1978",
            "value": null,
            "unit": "",
            "obs_status": "",
            "decimal": 1
        },
        {
            "indicator": {
                "id": "NY.GDP.PCAP.CD",
                "value": "GDP per capita (current US$)"
            },
            "country": {
                "id": "JG",
                "value": "Channel Islands"
            },
            "countryiso3code": "CHI",
            "date": "1977",
            "value": null,
            "unit": "",
            "obs_status": "",
            "decimal": 1
        },
        {
            "indicator": {
                "id": "NY.GDP.PCAP.CD",
                "value": "GDP per capita (current US$)"
            },
            "country": {
                "id": "JG",
                "value": "Channel Islands"
            },
            "countryiso3code": "CHI",
            "date": "1976",
            "value": null,
            "unit": "",
            "obs_status": "",
            "decimal": 1
        },
        {
            "indicator": {
                "id": "NY.GDP.PCAP.CD",
                "value": "GDP per capita (current US$)"
            },
            "country": {
                "id": "JG",
                "value": "Channel Islands"
            },
            "countryiso3code": "CHI",
            "date": "1975",
            "value": null,
            "unit": "",
            "obs_status": "",
            "decimal": 1
        },
        {
            "indicator": {
                "id": "NY.GDP.PCAP.CD",
                "value": "GDP per capita (current US$)"
            },
            "country": {
                "id": "JG",
                "value": "Channel Islands"
            },
            "countryiso3code": "CHI",
            "date": "1974",
            "value": null,
            "unit": "",
            "obs_status": "",
            "decimal": 1
        },
        {
            "indicator": {
                "id": "NY.GDP.PCAP.CD",
                "value": "GDP per capita (current US$)"
            },
            "country": {
                "id": "JG",
                "value": "Channel Islands"
            },
            "countryiso3code": "CHI",
            "date": "1973",
            "value": null,
            "unit": "",
            "obs_status": "",
            "decimal": 1
        },
        {
            "indicator": {
                "id": "NY.GDP.PCAP.CD",
                "value": "GDP per capita (current US$)"
            },
            "country": {
                "id": "JG",
                "value": "Channel Islands"
            },
            "countryiso3code": "CHI",
            "date": "1972",
            "value": null,
            "unit": "",
            "obs_status": "",
            "decimal": 1
        }
    ]
]